{
  "action1": {
    "name": "sensor1",
    "type": "sensor",
    "condition": {
      "==": true
    }
  },
  "action2": {
    "&&": [
      {
        "name": "sensor1",
        "type": "sensor",
        "condition": {
          "==": true
        }
      },
      {
        "name": "sensor2",
        "type": "sensor",
        "condition": {
          "==": false
        }
      }
    ]
  },
  "action3": {
    "&&": [
      {
        "name": "sensor1",
        "type": "sensor",
        "condition": {
          "==": true
        }
      },
      {
        "name": "motor1",
        "type": "motor",
        "condition": {
          "||": [
            {
              "&&": [
                {">": 1},
                {"<": 10}
              ]
            },
            {
              "&&": [
                {">=": 20},
                {"<=": 30},
                {"!=": 25}
              ]
            },
            {"==": 100}
          ]
        }
      }
    ]
  }
}